{
  "logical_disks": [
    {
      "size_gb": "MAX",
      "raid_level": "1",
      "controller": "RAID.Integrated.1-1",
      "volume_name": "rootvolume",
      "is_root_volume": true,
      "physical_disks": [
        "Disk.Bay.0:Enclosure.Internal.0-1:RAID.Integrated.1-1",
        "Disk.Bay.1:Enclosure.Internal.0-1:RAID.Integrated.1-1"
      ]
    },
    {
      "size_gb": "MAX",
      "raid_level": "0",
      "controller": "RAID.Integrated.1-1",
      "volume_name": "datavolume1",
      "physical_disks": [
        "Disk.Bay.2:Enclosure.Internal.0-1:RAID.Integrated.1-1"
      ]
    },
    {
      "size_gb": "MAX",
      "raid_level": "0",
      "controller": "RAID.Integrated.1-1",
      "volume_name": "datavolume2",
      "physical_disks": [
        "Disk.Bay.3:Enclosure.Internal.0-1:RAID.Integrated.1-1"
      ]
    },
    {
      "size_gb": "MAX",
      "raid_level": "0",
      "controller": "RAID.Integrated.1-1",
      "volume_name": "datavolume3",
      "physical_disks": [
        "Disk.Bay.4:Enclosure.Internal.0-1:RAID.Integrated.1-1"
      ]
    },
    {
      "size_gb": "MAX",
      "raid_level": "0",
      "controller": "RAID.Integrated.1-1",
      "volume_name": "datavolume4",
      "physical_disks": [
        "Disk.Bay.5:Enclosure.Internal.0-1:RAID.Integrated.1-1"
      ]
    },
    {
      "size_gb": "MAX",
      "raid_level": "0",
      "controller": "RAID.Integrated.1-1",
      "volume_name": "datavolume5",
      "physical_disks": [
        "Disk.Bay.6:Enclosure.Internal.0-1:RAID.Integrated.1-1"
      ]
    },
    {
      "size_gb": "MAX",
      "raid_level": "0",
      "controller": "RAID.Integrated.1-1",
      "volume_name": "datavolume6",
      "physical_disks": [
        "Disk.Bay.7:Enclosure.Internal.0-1:RAID.Integrated.1-1"
      ]
    },
    {
      "size_gb": "MAX",
      "raid_level": "0",
      "controller": "RAID.Integrated.1-1",
      "volume_name": "datavolume7",
      "physical_disks": [
        "Disk.Bay.8:Enclosure.Internal.0-1:RAID.Integrated.1-1"
      ]
    },
    {
      "size_gb": "MAX",
      "raid_level": "0",
      "controller": "RAID.Integrated.1-1",
      "volume_name": "datavolume8",
      "physical_disks": [
        "Disk.Bay.9:Enclosure.Internal.0-1:RAID.Integrated.1-1"
      ]
    }
  ]
}




