{
  "logical_disks": [
    {
      "size_gb": "MAX",
      "raid_level": "1",
      "controller": "RAID.Integrated.1-1",
      "volume_name": "rootvolume",
      "is_root_volume": true,
      "physical_disks": [
        "Disk.Bay.0:Enclosure.Internal.0-1:RAID.Integrated.1-1",
        "Disk.Bay.1:Enclosure.Internal.0-1:RAID.Integrated.1-1"
      ]
    }
  ]
}




